<?xml version="1.0" encoding="UTF-8"?>
<session version="1.0">
<refactoring comment="Delete resource &apos;tp_junit2&apos;" deleteContents="true" description="Delete resource &apos;tp_junit2&apos;" element1="/tp_junit2" flags="7" id="org.eclipse.ltk.core.refactoring.delete.resources" resources="1" stamp="1605275229667"/>
</session>